Division,WeightClassKg,Place,Name,Team,BodyweightKg,Best3SquatKg,Best3BenchKg,Best3DeadliftKg,TotalKg,Equipment,Event,Sex,BirthDate
Boys,51.71,1,Xavier Marroquin,Strawn,45.5,90.72,47.63,113.4,251.74,Single-ply,SBD,M,
Boys,59.87,1,Jesse Corona,Strawn,59.47,149.69,61.23,136.08,347,Single-ply,SBD,M,
Boys,59.87,2,Casey Beach,Perrin-Whitt,59.33,111.13,79.38,133.81,324.32,Single-ply,SBD,M,
Boys,59.87,3,Logan Turner,Perrin-Whitt,57.24,115.67,72.57,120.2,308.44,Single-ply,SBD,M,
Boys,67.13,1,Trenton Sizemore,Strawn,66.77,181.44,95.25,165.56,442.25,Single-ply,SBD,M,
Boys,67.13,2,Jordan Scheriger,Sidney,66.95,154.22,90.72,181.44,426.38,Single-ply,SBD,M,
Boys,67.13,3,Joshua Rucker,Sidney,66.41,145.15,99.79,158.76,403.7,Single-ply,SBD,M,
Boys,67.13,4,Leo DeLatorre,Strawn,66.22,142.88,70.31,151.95,365.14,Single-ply,SBD,M,
Boys,67.13,5,Kyler Tunnell,Strawn,63.55,136.08,81.65,136.08,353.8,Single-ply,SBD,M,
Boys,74.84,1,Justin Patton,Strawn,74.25,127.01,70.31,163.29,360.61,Single-ply,SBD,M,
Boys,82.1,1,Jett Millsop,Strawn,81.37,201.85,120.2,183.7,505.76,Single-ply,SBD,M,
Boys,89.81,1,Jose Estrada,Strawn,89.54,213.19,127.01,174.63,514.83,Single-ply,SBD,M,
Boys,89.81,2,Kadin Parsons,Strawn,88.18,140.61,92.99,195.04,428.64,Single-ply,SBD,M,
Boys,99.79,1,Lorenzo Garcia,Strawn,98.93,260.82,154.22,204.12,619.15,Single-ply,SBD,M,
Boys,99.79,2,Justice Baker #1,Strawn,96.21,199.58,136.08,185.97,521.63,Single-ply,SBD,M,
Boys,109.77,1,Rowdy Sparks,Strawn,103.01,208.65,106.59,199.58,514.83,Single-ply,SBD,M,
Boys,109.77,2,Ryland Staggs,Perrin-Whitt,103.01,106.59,72.57,122.47,301.64,Single-ply,SBD,M,
Boys,124.74,1,Adam Crawford,Perrin-Whitt,120.25,147.42,108.86,149.69,405.97,Single-ply,SBD,M,
Boys,139.71,1,Cesar Espinosa,Strawn,125.24,183.7,113.4,165.56,462.66,Single-ply,SBD,M,
