Division,WeightClassKg,Place,Name,Team,BodyweightKg,Best3SquatKg,Best3BenchKg,Best3DeadliftKg,TotalKg,Equipment,Event,Sex,BirthDate
Boys,51.71,1,Fabian Garcia,Edinburg Idea College Prep,51.66,158.76,117.93,174.63,451.32,Single-ply,SBD,M,
Boys,51.71,2,Jaden Lopez,Port Isabel,50.8,174.63,83.91,174.63,433.18,Single-ply,SBD,M,
Boys,51.71,3,Hisaac Guerrero,Rio Hondo,51.71,154.22,115.67,156.49,426.38,Single-ply,SBD,M,
Boys,51.71,4,Damian Reyna,Edinburg,50.26,136.08,97.52,156.49,390.09,Single-ply,SBD,M,
Boys,51.71,5,Hector DeLeon,Edinburg,51.53,133.81,86.18,138.35,358.34,Single-ply,SBD,M,
Boys,51.71,6,Joel Tagle,Rio Hondo,50.35,108.86,81.65,122.47,312.98,Single-ply,SBD,M,
Boys,51.71,7,Ethan Vidal,Brownsville Hanna,50.94,113.4,79.38,115.67,308.44,Single-ply,SBD,M,
Boys,51.71,8,Jacob Solis,PSJA,51.35,115.67,68.04,115.67,299.37,Single-ply,SBD,M,
Boys,55.79,1,Joey Rodriguez,Edinburg Idea College Prep,55.7,176.9,127.01,183.7,487.61,Single-ply,SBD,M,
Boys,55.79,2,Ramiro Yanez,PSJA,55.79,170.1,102.06,185.97,458.13,Single-ply,SBD,M,
Boys,55.79,3,Fred Mares,Edinburg,55.07,142.88,106.59,183.7,433.18,Single-ply,SBD,M,
Boys,55.79,4,Richard Rodriguez,Edinburg,55.07,161.03,92.99,176.9,430.91,Single-ply,SBD,M,
Boys,55.79,5,Andrew Garcia,Brownsville Hanna,54.07,172.37,77.11,172.37,421.84,Single-ply,SBD,M,
Boys,55.79,6,Jan Ramirez,PSJA North,54.25,163.29,106.59,147.42,417.3,Single-ply,SBD,M,
Boys,55.79,7,Joel Madrigal,Donna North,54.79,142.88,86.18,170.1,399.16,Single-ply,SBD,M,
Boys,55.79,8,Gabriel Chavez,Lyford,55.61,142.88,65.77,174.63,383.29,Single-ply,SBD,M,
Boys,55.79,9,Isaak Prieto,Lyford,54.79,124.74,79.38,145.15,349.27,Single-ply,SBD,M,
Boys,59.87,1,Jose Soto,Edinburg Economedes,59.51,249.48,151.95,210.92,612.35,Single-ply,SBD,M,
Boys,59.87,2,AJ Trevino,Edinburg,59.78,210.92,149.69,199.58,560.19,Single-ply,SBD,M,
Boys,59.87,3,David Hernandez,Port Isabel,59.15,190.51,106.59,204.12,501.22,Single-ply,SBD,M,
Boys,59.87,4,Tomas Arredondo,Rio Hondo,59.87,156.49,113.4,161.03,430.91,Single-ply,SBD,M,
Boys,59.87,5,Jose Garcia #9,Edinburg North,59.87,147.42,102.06,174.63,424.11,Single-ply,SBD,M,
Boys,59.87,6,Jason Ybarra,Edinburg Idea College Prep,57.7,151.95,65.77,156.49,374.21,Single-ply,SBD,M,
Boys,59.87,DQ,Edgar Duran,PSJA North,59.51,185.97,,,,Single-ply,SBD,M,
Boys,59.87,DQ,Michael Tamez,Mission,59.06,235.87,124.74,,,Single-ply,SBD,M,
Boys,67.13,1,Leonardo Perez,Mission,67.04,199.58,115.67,201.85,517.1,Single-ply,SBD,M,
Boys,67.13,2,Adrian Garcia,Edinburg Economedes,60.42,215.46,122.47,176.9,514.83,Single-ply,SBD,M,
Boys,67.13,3,Frank Hernandez,Rio Hondo,66.32,176.9,136.08,181.44,494.42,Single-ply,SBD,M,
Boys,67.13,4,Devon Mendoza,Lyford,66.95,199.58,104.33,181.44,485.34,Single-ply,SBD,M,
Boys,67.13,5,Efrain Lopez,Rio Hondo,63.96,176.9,124.74,181.44,483.08,Single-ply,SBD,M,
Boys,67.13,6,Arturo Sayas,Raymondville,66.77,185.97,92.99,190.51,469.47,Single-ply,SBD,M,
Boys,67.13,7,Valente Rosas,Lyford,67.04,183.7,102.06,151.95,437.72,Single-ply,SBD,M,
Boys,67.13,8,Pedro Garcia,Raymondville,64.77,163.29,92.99,179.17,435.45,Single-ply,SBD,M,
Boys,67.13,9,Darin Valdez,Port Isabel,62.96,165.56,92.99,163.29,421.84,Single-ply,SBD,M,
Boys,67.13,10,Raul Rodriguez,Edinburg North,64.59,167.83,83.91,163.29,415.04,Single-ply,SBD,M,
Boys,67.13,11,Michael Villareal,Port Isabel,67.13,151.95,79.38,147.42,378.75,Single-ply,SBD,M,
Boys,67.13,12,Nathan Gonzalez,Port Isabel,63.68,102.06,61.23,115.67,278.96,Single-ply,SBD,M,
Boys,67.13,DQ,Tyler Rosales,PSJA North,65.77,,,,,Single-ply,SBD,M,
Boys,67.13,DQ,Robert Solis,Edinburg Economedes,67.13,,,,,Single-ply,SBD,M,
Boys,74.84,1,Alan Olvera,Edinburg Economedes,70.4,224.53,145.15,219.99,589.67,Single-ply,SBD,M,
Boys,74.84,2,Juan Garza,Edinburg,73.39,226.8,154.22,208.65,589.67,Single-ply,SBD,M,
Boys,74.84,3,Eddie Mujica,Edinburg,72.21,210.92,151.95,210.92,573.79,Single-ply,SBD,M,
Boys,74.84,4,Jesse Leal,Edinburg Economedes,74.84,174.63,117.93,222.26,514.83,Single-ply,SBD,M,
Boys,74.84,5,Tony Garcia,Rio Hondo,74.84,172.37,113.4,208.65,494.42,Single-ply,SBD,M,
Boys,74.84,6,Teddie Lozano,Edinburg North,74.84,163.29,106.59,206.38,476.27,Single-ply,SBD,M,
Boys,74.84,7,Dante de la Garza,Port Isabel,67.86,176.9,99.79,190.51,467.2,Single-ply,SBD,M,
Boys,74.84,8,Jose Garcia #10,Raymondville,74.84,174.63,102.06,161.03,437.72,Single-ply,SBD,M,
Boys,74.84,9,Danial Villareal,Port Isabel,74.3,138.35,92.99,163.29,394.63,Single-ply,SBD,M,
Boys,74.84,DQ,Catorina Tijerina,Raymondville,73.3,,,,,Single-ply,SBD,M,
Boys,74.84,DQ,Javier Pichardo,PSJA,72.94,249.48,124.74,,,Single-ply,SBD,M,
Boys,74.84,DQ,Jesus Sepulveda,Edinburg Economedes,74.12,224.53,,,,Single-ply,SBD,M,
Boys,74.84,DQ,Skylar Alaniz,Santa Rosa,74.03,142.88,92.99,,,Single-ply,SBD,M,
Boys,82.1,1,Juan Torres #2,Raymondville,81.1,260.82,133.81,251.74,646.37,Single-ply,SBD,M,
Boys,82.1,2,Joshua Sanchez,Edinburg Economedes,77.2,238.14,131.54,260.82,630.49,Single-ply,SBD,M,
Boys,82.1,3,Gonzalo Perez,Mission,81.47,240.4,147.42,226.8,614.62,Single-ply,SBD,M,
Boys,82.1,4,John Bustos,Donna North,81.37,244.94,136.08,213.19,594.21,Single-ply,SBD,M,
Boys,82.1,5,Jonathan Mendoza,Port Isabel,81.56,226.8,129.27,213.19,569.26,Single-ply,SBD,M,
Boys,82.1,6,Brandon Rocha,Lyford,77.66,210.92,133.81,199.58,544.31,Single-ply,SBD,M,
Boys,82.1,7,Robert Ortiz,Edinburg North,79.92,215.46,117.93,210.92,544.31,Single-ply,SBD,M,
Boys,82.1,8,Brandon Ramirez #3,Edinburg North,76.2,185.97,142.88,185.97,514.83,Single-ply,SBD,M,
Boys,82.1,9,Jj Mendoza,Santa Rosa,80.01,204.12,111.13,195.04,510.29,Single-ply,SBD,M,
Boys,82.1,10,Justin Cappadona,Edinburg North,81.01,192.78,117.93,190.51,501.22,Single-ply,SBD,M,
Boys,82.1,11,Miguel Martinez,Port Isabel,78.29,201.85,95.25,195.04,492.15,Single-ply,SBD,M,
Boys,82.1,DQ,Alter Arenas,PSJA North,80.56,,,,,Single-ply,SBD,M,
Boys,89.81,1,Rolando Gonzalez,Brownsville Hanna,89.49,244.94,127.01,254.01,625.96,Single-ply,SBD,M,
Boys,89.81,2,Vincent Castillo,PSJA North,88.09,235.87,154.22,222.26,612.35,Single-ply,SBD,M,
Boys,89.81,3,Zeke Cuadros,Mission,89.63,235.87,131.54,222.26,589.67,Single-ply,SBD,M,
Boys,89.81,4,Nicolas Lopez,Rio Hondo,87.82,226.8,140.61,213.19,580.6,Single-ply,SBD,M,
Boys,89.81,5,Brian Rodriguez,PSJA North,87.27,244.94,140.61,192.78,578.33,Single-ply,SBD,M,
Boys,89.81,6,Juan Mendoza #4,Edinburg,87.72,217.72,151.95,199.58,569.26,Single-ply,SBD,M,
Boys,89.81,7,Anthony Finona,Port Isabel,87.54,226.8,113.4,215.46,555.65,Single-ply,SBD,M,
Boys,89.81,8,Adrian Cantu #2,Raymondville,88,224.53,102.06,197.31,523.9,Single-ply,SBD,M,
Boys,89.81,9,Jorge Terrazas,Santa Rosa,87.91,192.78,92.99,195.04,480.81,Single-ply,SBD,M,
Boys,89.81,10,Brave Munoz,Santa Rosa,84.19,167.83,86.18,165.56,419.57,Single-ply,SBD,M,
Boys,89.81,DQ,Miguel Vasquez,Donna North,88.9,226.8,111.13,,,Single-ply,SBD,M,
Boys,89.81,DQ,Oscar Cruz,Edinburg,89.54,235.87,,,,Single-ply,SBD,M,
Boys,89.81,DQ,Christian Garcia,Lyford,89.36,,,,,Single-ply,SBD,M,
Boys,99.79,1,Cristian Hernandez #1,Mission,96.25,294.84,140.61,222.26,657.71,Single-ply,SBD,M,
Boys,99.79,2,Jonah Hernandez,Port Isabel,97.07,263.08,156.49,210.92,630.49,Single-ply,SBD,M,
Boys,99.79,3,Gerardo Sifuentes,Edinburg Economedes,97.52,233.6,140.61,242.67,616.89,Single-ply,SBD,M,
Boys,99.79,4,Branden Ochoa,PSJA,94.8,229.06,136.08,192.78,557.92,Single-ply,SBD,M,
Boys,99.79,5,Isaiah Cepeda,Edinburg North,93.53,210.92,131.54,199.58,542.04,Single-ply,SBD,M,
Boys,99.79,6,Jorse Garay,PSJA,94.53,181.44,113.4,183.7,478.54,Single-ply,SBD,M,
Boys,99.79,DQ,Sebastian Perez,Lyford,93.98,,,,,Single-ply,SBD,M,
Boys,99.79,DQ,Fabian Ahumada,Mission,98.88,,,,,Single-ply,SBD,M,
Boys,99.79,DQ,Pablo Rodriguez,Edinburg North,99.79,,,,,Single-ply,SBD,M,
Boys,109.77,1,Frankie Coronado,Edinburg,104.51,285.76,190.51,242.67,718.94,Single-ply,SBD,M,
Boys,109.77,2,Joseph Guerra,Edinburg Economedes,102.51,267.62,163.29,254.01,684.92,Single-ply,SBD,M,
Boys,109.77,3,Ricardo Rangel,Donna North,105.78,267.62,172.37,240.4,680.39,Single-ply,SBD,M,
Boys,109.77,4,Emmanuel Cepeda,Lyford,106.32,263.08,176.9,233.6,673.58,Single-ply,SBD,M,
Boys,109.77,5,Houston Torres,Mission,105.96,281.23,154.22,215.46,650.91,Single-ply,SBD,M,
Boys,109.77,6,Robert Garza,PSJA,106.23,267.62,163.29,217.72,648.64,Single-ply,SBD,M,
Boys,109.77,7,Jacob Simmons,PSJA,101.7,201.85,131.54,158.76,492.15,Single-ply,SBD,M,
Boys,109.77,DQ,Anthony Selvera,Rio Hondo,106.87,,,,,Single-ply,SBD,M,
Boys,124.74,1,Matthew Lopez #1,Rio Hondo,119.39,308.44,181.44,272.16,762.04,Single-ply,SBD,M,
Boys,124.74,2,Josh Sanchez,PSJA,124.65,283.5,181.44,235.87,700.8,Single-ply,SBD,M,
Boys,124.74,3,Aaron Noriega,PSJA,118.66,276.69,165.56,231.33,673.58,Single-ply,SBD,M,
Boys,124.74,4,Abisai Tijerina,Edinburg Economedes,120.38,254.01,145.15,235.87,635.03,Single-ply,SBD,M,
Boys,124.74,5,Scott Atkinson,Rio Hondo,120.93,242.67,138.35,254.01,635.03,Single-ply,SBD,M,
Boys,124.74,6,Jayden Morales,Mission,122.02,242.67,149.69,192.78,585.13,Single-ply,SBD,M,
Boys,124.74,DQ,Lucas Gutierrez,PSJA,123.74,,,,,Single-ply,SBD,M,
Boys,124.74+,1,Jaden Brooks,Raymondville,173.64,317.51,174.63,258.55,750.7,Single-ply,SBD,M,
Boys,124.74+,2,Rolando Zuniga,Rio Hondo,163.29,299.37,190.51,235.87,725.75,Single-ply,SBD,M,
Boys,124.74+,3,Genaro Paez,Edinburg,157.22,294.84,185.97,235.87,716.68,Single-ply,SBD,M,
Boys,124.74+,4,Ernesto Sustaita,Edinburg North,134.81,272.16,145.15,235.87,653.17,Single-ply,SBD,M,
Boys,124.74+,5,Trebor Awna,Edinburg North,132,276.69,161.03,204.12,641.83,Single-ply,SBD,M,
Boys,124.74+,6,Jorge Rendon,PSJA,138.07,229.06,138.35,181.44,548.85,Single-ply,SBD,M,
Boys,124.74+,7,Nick Gomez,Raymondville,134.81,224.53,111.13,183.7,519.36,Single-ply,SBD,M,
Boys,124.74+,8,Mark Reyes,Raymondville,127.01,201.85,97.52,165.56,464.93,Single-ply,SBD,M,
Boys,124.74+,DQ,Willy Vasquez,Santa Rosa,140.07,272.16,124.74,,,Single-ply,SBD,M,
